HPAM 7660 - Health Policy Analysis - R Programming Cheat Sheet
…
Data Wrangling

Subsetting a data frame

Use the filter() function from the dplyr package to subset a data frame. In this example, you’ll use the nycflights13 data and filter by United Airlines flights.

library(nycflights13)

flights |> filter(carrier == "UA")

# A tibble: 58,665 × 19
    year month   day dep_time sched_dep_time dep_delay arr_time sched_arr_time
   <int> <int> <int>    <int>          <int>     <dbl>    <int>          <int>
 1  2013     1     1      517            515         2      830            819
 2  2013     1     1      533            529         4      850            830
 3  2013     1     1      554            558        -4      740            728
 4  2013     1     1      558            600        -2      924            917
 5  2013     1     1      558            600        -2      923            937
 6  2013     1     1      559            600        -1      854            902
 7  2013     1     1      607            607         0      858            915
 8  2013     1     1      611            600        11      945            931
 9  2013     1     1      623            627        -4      933            932
10  2013     1     1      628            630        -2     1016            947
# ℹ 58,655 more rows
# ℹ 11 more variables: arr_delay <dbl>, carrier <chr>, flight <int>,
#   tailnum <chr>, origin <chr>, dest <chr>, air_time <dbl>, distance <dbl>,
#   hour <dbl>, minute <dbl>, time_hour <dttm>

You can filter based on multiple conditions to subset to the rows that meet all conditions:

flights |> filter(carrier == "UA", origin == "JFK")

# A tibble: 4,534 × 19
    year month   day dep_time sched_dep_time dep_delay arr_time sched_arr_time
   <int> <int> <int>    <int>          <int>     <dbl>    <int>          <int>
 1  2013     1     1      558            600        -2      924            917
 2  2013     1     1      611            600        11      945            931
 3  2013     1     1      803            800         3     1132           1144
 4  2013     1     1      829            830        -1     1152           1200
 5  2013     1     1     1112           1100        12     1440           1438
 6  2013     1     1     1127           1130        -3     1504           1448
 7  2013     1     1     1422           1425        -3     1748           1759
 8  2013     1     1     1522           1530        -8     1858           1855
 9  2013     1     1     1726           1729        -3     2042           2100
10  2013     1     1     1750           1750         0     2109           2115
# ℹ 4,524 more rows
# ℹ 11 more variables: arr_delay <dbl>, carrier <chr>, flight <int>,
#   tailnum <chr>, origin <chr>, dest <chr>, air_time <dbl>, distance <dbl>,
#   hour <dbl>, minute <dbl>, time_hour <dttm>

You can use the | operator to match one of two conditions (“OR” rather than “AND”):

  flights |> filter(carrier == "UA" | carrier == "AA")

# A tibble: 91,394 × 19
    year month   day dep_time sched_dep_time dep_delay arr_time sched_arr_time
   <int> <int> <int>    <int>          <int>     <dbl>    <int>          <int>
 1  2013     1     1      517            515         2      830            819
 2  2013     1     1      533            529         4      850            830
 3  2013     1     1      542            540         2      923            850
 4  2013     1     1      554            558        -4      740            728
 5  2013     1     1      558            600        -2      753            745
 6  2013     1     1      558            600        -2      924            917
 7  2013     1     1      558            600        -2      923            937
 8  2013     1     1      559            600        -1      941            910
 9  2013     1     1      559            600        -1      854            902
10  2013     1     1      606            610        -4      858            910
# ℹ 91,384 more rows
# ℹ 11 more variables: arr_delay <dbl>, carrier <chr>, flight <int>,
#   tailnum <chr>, origin <chr>, dest <chr>, air_time <dbl>, distance <dbl>,
#   hour <dbl>, minute <dbl>, time_hour <dttm>

To test if a variable is one of several possible values, you can also use the %in% command:

flights |> filter(carrier %in% c("UA", "AA"))

# A tibble: 91,394 × 19
    year month   day dep_time sched_dep_time dep_delay arr_time sched_arr_time
   <int> <int> <int>    <int>          <int>     <dbl>    <int>          <int>
 1  2013     1     1      517            515         2      830            819
 2  2013     1     1      533            529         4      850            830
 3  2013     1     1      542            540         2      923            850
 4  2013     1     1      554            558        -4      740            728
 5  2013     1     1      558            600        -2      753            745
 6  2013     1     1      558            600        -2      924            917
 7  2013     1     1      558            600        -2      923            937
 8  2013     1     1      559            600        -1      941            910
 9  2013     1     1      559            600        -1      854            902
10  2013     1     1      606            610        -4      858            910
# ℹ 91,384 more rows
# ℹ 11 more variables: arr_delay <dbl>, carrier <chr>, flight <int>,
#   tailnum <chr>, origin <chr>, dest <chr>, air_time <dbl>, distance <dbl>,
#   hour <dbl>, minute <dbl>, time_hour <dttm>
…
Here the 1:5 syntax tells R to produce a vector that starts at 1 and ends at 5, incrementing by 1:

1:5

[1] 1 2 3 4 5

Filtering to the largest/smallest values of a variable

To subset to the rows that have the largest or smallest values of a given variable, use the slice_max and slice_max functions. For the largest values, use slice_max and use the n argument to specify how many rows you want:

flights |> slice_max(dep_time, n = 5)

# A tibble: 29 × 19
    year month   day dep_time sched_dep_time dep_delay arr_time sched_arr_time
   <int> <int> <int>    <int>          <int>     <dbl>    <int>          <int>
 1  2013    10    30     2400           2359         1      327            337
 2  2013    11    27     2400           2359         1      515            445
 3  2013    12     5     2400           2359         1      427            440
 4  2013    12     9     2400           2359         1      432            440
 5  2013    12     9     2400           2250        70       59           2356
 6  2013    12    13     2400           2359         1      432            440
 7  2013    12    19     2400           2359         1      434            440
 8  2013    12    29     2400           1700       420      302           2025
 9  2013     2     7     2400           2359         1      432            436
10  2013     2     7     2400           2359         1      443            444
# ℹ 19 more rows
# ℹ 11 more variables: arr_delay <dbl>, carrier <chr>, flight <int>,
#   tailnum <chr>, origin <chr>, dest <chr>, air_time <dbl>, distance <dbl>,
#   hour <dbl>, minute <dbl>, time_hour <dttm>

To get lowest values, use slice_min:

flights |> slice_min(dep_time, n = 5)

# A tibble: 25 × 19
    year month   day dep_time sched_dep_time dep_delay arr_time sched_arr_time
   <int> <int> <int>    <int>          <int>     <dbl>    <int>          <int>
 1  2013     1    13        1           2249        72      108           2357
 2  2013     1    31        1           2100       181      124           2225
 3  2013    11    13        1           2359         2      442            440
 4  2013    12    16        1           2359         2      447            437
 5  2013    12    20        1           2359         2      430            440
 6  2013    12    26        1           2359         2      437            440
 7  2013    12    30        1           2359         2      441            437
 8  2013     2    11        1           2100       181      111           2225
 9  2013     2    24        1           2245        76      121           2354
10  2013     3     8        1           2355         6      431            440
# ℹ 15 more rows
# ℹ 11 more variables: arr_delay <dbl>, carrier <chr>, flight <int>,
#   tailnum <chr>, origin <chr>, dest <chr>, air_time <dbl>, distance <dbl>,
#   hour <dbl>, minute <dbl>, time_hour <dttm>

Sorting rows by a variable

You can sort the rows of a data set using the arrange() function. By default, this will sort the rows from smallest to largest.

flights |> arrange(dep_time)

# A tibble: 336,776 × 19
    year month   day dep_time sched_dep_time dep_delay arr_time sched_arr_time
   <int> <int> <int>    <int>          <int>     <dbl>    <int>          <int>
 1  2013     1    13        1           2249        72      108           2357
 2  2013     1    31        1           2100       181      124           2225
 3  2013    11    13        1           2359         2      442            440
 4  2013    12    16        1           2359         2      447            437
 5  2013    12    20        1           2359         2      430            440
 6  2013    12    26        1           2359         2      437            440
 7  2013    12    30        1           2359         2      441            437
 8  2013     2    11        1           2100       181      111           2225
 9  2013     2    24        1           2245        76      121           2354
10  2013     3     8        1           2355         6      431            440
# ℹ 336,766 more rows
# ℹ 11 more variables: arr_delay <dbl>, carrier <chr>, flight <int>,
#   tailnum <chr>, origin <chr>, dest <chr>, air_time <dbl>, distance <dbl>,
#   hour <dbl>, minute <dbl>, time_hour <dttm>

If you would like to sort the rows from largest to smallest (descending order), you can wrap the variable name with desc():

flights |> arrange(desc(dep_time))

# A tibble: 336,776 × 19
    year month   day dep_time sched_dep_time dep_delay arr_time sched_arr_time
   <int> <int> <int>    <int>          <int>     <dbl>    <int>          <int>
 1  2013    10    30     2400           2359         1      327            337
 2  2013    11    27     2400           2359         1      515            445
 3  2013    12     5     2400           2359         1      427            440
 4  2013    12     9     2400           2359         1      432            440
 5  2013    12     9     2400           2250        70       59           2356
 6  2013    12    13     2400           2359         1      432            440
 7  2013    12    19     2400           2359         1      434            440
 8  2013    12    29     2400           1700       420      302           2025
 9  2013     2     7     2400           2359         1      432            436
10  2013     2     7     2400           2359         1      443            444
# ℹ 336,766 more rows
# ℹ 11 more variables: arr_delay <dbl>, carrier <chr>, flight <int>,
#   tailnum <chr>, origin <chr>, dest <chr>, air_time <dbl>, distance <dbl>,
#   hour <dbl>, minute <dbl>, time_hour <dttm>

Selecting/subsetting the columns

You can subset the data to only certain columns using the select() command:

flights |> select(dep_time, arr_time, dest)

# A tibble: 336,776 × 3
   dep_time arr_time dest 
      <int>    <int> <chr>
 1      517      830 IAH  
 2      533      850 IAH  
 3      542      923 MIA  
 4      544     1004 BQN  
 5      554      812 ATL  
 6      554      740 ORD  
 7      555      913 FLL  
 8      557      709 IAD  
 9      557      838 MCO  
10      558      753 ORD  
# ℹ 336,766 more rows

If you want to select a range of columns from, say, callsign to ideology, you can use the : operator:

flights |> select(dep_time:arr_delay)

# A tibble: 336,776 × 6
   dep_time sched_dep_time dep_delay arr_time sched_arr_time arr_delay
      <int>          <int>     <dbl>    <int>          <int>     <dbl>
 1      517            515         2      830            819        11
 2      533            529         4      850            830        20
 3      542            540         2      923            850        33
 4      544            545        -1     1004           1022       -18
 5      554            600        -6      812            837       -25
 6      554            558        -4      740            728        12
 7      555            600        -5      913            854        19
 8      557            600        -3      709            723       -14
 9      557            600        -3      838            846        -8
10      558            600        -2      753            745         8
# ℹ 336,766 more rows

You can remove a variable from the data set by using the minus sign - in front of it:

flights |> select(-year)

# A tibble: 336,776 × 18
   month   day dep_time sched_dep_time dep_delay arr_time sched_arr_time
   <int> <int>    <int>          <int>     <dbl>    <int>          <int>
 1     1     1      517            515         2      830            819
 2     1     1      533            529         4      850            830
 3     1     1      542            540         2      923            850
 4     1     1      544            545        -1     1004           1022
 5     1     1      554            600        -6      812            837
 6     1     1      554            558        -4      740            728
 7     1     1      555            600        -5      913            854
 8     1     1      557            600        -3      709            723
 9     1     1      557            600        -3      838            846
10     1     1      558            600        -2      753            745
# ℹ 336,766 more rows
# ℹ 11 more variables: arr_delay <dbl>, carrier <chr>, flight <int>,
#   tailnum <chr>, origin <chr>, dest <chr>, air_time <dbl>, distance <dbl>,
#   hour <dbl>, minute <dbl>, time_hour <dttm>

You can also drop several variables using the c() function or the (a:b) syntax:

flights |> select(-c(year, month, day))

# A tibble: 336,776 × 16
   dep_time sched_dep_time dep_delay arr_time sched_arr_time arr_delay carrier
      <int>          <int>     <dbl>    <int>          <int>     <dbl> <chr>  
 1      517            515         2      830            819        11 UA     
 2      533            529         4      850            830        20 UA     
 3      542            540         2      923            850        33 AA     
 4      544            545        -1     1004           1022       -18 B6     
 5      554            600        -6      812            837       -25 DL     
 6      554            558        -4      740            728        12 UA     
 7      555            600        -5      913            854        19 B6     
 8      557            600        -3      709            723       -14 EV     
 9      557            600        -3      838            846        -8 B6     
10      558            600        -2      753            745         8 AA     
# ℹ 336,766 more rows
# ℹ 9 more variables: flight <int>, tailnum <chr>, origin <chr>, dest <chr>,
#   air_time <dbl>, distance <dbl>, hour <dbl>, minute <dbl>, time_hour <dttm>

flights |> select(-(year:day))

# A tibble: 336,776 × 16
   dep_time sched_dep_time dep_delay arr_time sched_arr_time arr_delay carrier
      <int>          <int>     <dbl>    <int>          <int>     <dbl> <chr>  
 1      517            515         2      830            819        11 UA     
 2      533            529         4      850            830        20 UA     
 3      542            540         2      923            850        33 AA     
 4      544            545        -1     1004           1022       -18 B6     
 5      554            600        -6      812            837       -25 DL     
 6      554            558        -4      740            728        12 UA     
 7      555            600        -5      913            854        19 B6     
 8      557            600        -3      709            723       -14 EV     
 9      557            600        -3      838            846        -8 B6     
10      558            600        -2      753            745         8 AA     
# ℹ 336,766 more rows
# ℹ 9 more variables: flight <int>, tailnum <chr>, origin <chr>, dest <chr>,
#   air_time <dbl>, distance <dbl>, hour <dbl>, minute <dbl>, time_hour <dttm>

You can also select columns based on matching patterns in the names with functions like starts_with() or ends_with():

flights |> select(ends_with("delay"))

# A tibble: 336,776 × 2
   dep_delay arr_delay
       <dbl>     <dbl>
 1         2        11
 2         4        20
 3         2        33
 4        -1       -18
 5        -6       -25
 6        -4        12
 7        -5        19
 8        -3       -14
 9        -3        -8
10        -2         8
# ℹ 336,766 more rows

This code finds all variables with column names that end with the string “delay”. See the help page for select() for more information on different ways to select.

Renaming a variable

You can rename a variable useing the function rename(new_name = old_name):

flights |> rename(flight_number = flight)

# A tibble: 336,776 × 19
    year month   day dep_time sched_dep_time dep_delay arr_time sched_arr_time
   <int> <int> <int>    <int>          <int>     <dbl>    <int>          <int>
 1  2013     1     1      517            515         2      830            819
 2  2013     1     1      533            529         4      850            830
 3  2013     1     1      542            540         2      923            850
 4  2013     1     1      544            545        -1     1004           1022
 5  2013     1     1      554            600        -6      812            837
 6  2013     1     1      554            558        -4      740            728
 7  2013     1     1      555            600        -5      913            854
 8  2013     1     1      557            600        -3      709            723
 9  2013     1     1      557            600        -3      838            846
10  2013     1     1      558            600        -2      753            745
# ℹ 336,766 more rows
# ℹ 11 more variables: arr_delay <dbl>, carrier <chr>, flight_number <int>,
#   tailnum <chr>, origin <chr>, dest <chr>, air_time <dbl>, distance <dbl>,
#   hour <dbl>, minute <dbl>, time_hour <dttm>

Creating new variables

You can create new variables that are functions of old variables using the mutate() function:

flights |> mutate(flight_length = arr_time - dep_time) |> select(arr_time, dep_time, flight_length)

# A tibble: 336,776 × 3
   arr_time dep_time flight_length
      <int>    <int>         <int>
 1      830      517           313
 2      850      533           317
 3      923      542           381
 4     1004      544           460
 5      812      554           258
 6      740      554           186
 7      913      555           358
 8      709      557           152
 9      838      557           281
10      753      558           195
# ℹ 336,766 more rows

Creating new variables based on yes/no conditions

If you want to create a new variable that can take on two values based on a logical conditional, you should use the if_else() function inside of mutate(). For instance, if we want to create a more nicely labeled version of the sinclair2017 variable (which is 0/1), we could do:

flights |>
  mutate(late = if_else(arr_delay > 0,
                             "Flight Delayed",
                             "Flight On Time")) |>
  select(arr_delay, late)

# A tibble: 336,776 × 2
   arr_delay late          
       <dbl> <chr>         
 1        11 Flight Delayed
 2        20 Flight Delayed
 3        33 Flight Delayed
 4       -18 Flight On Time
 5       -25 Flight On Time
 6        12 Flight Delayed
 7        19 Flight Delayed
 8       -14 Flight On Time
 9        -8 Flight On Time
10         8 Flight Delayed
# ℹ 336,766 more rows
…
